{
    "ExportRayObj": false,
    "EnableAuralizer": false,
    "JackServerName": "default",

    "EnableDopplerShift": true,
    "DelayLineInterpolationOrder": 2,
    "MaxRelativeVelocity": 50.0,

    "AmbisonicOrder": 2,
    "MaxAudioSources": 20,
    "SampleRate": 48000,

    "Temperature": 20,
    "Humidity": 50,
    "Pressure": 101.325,

    "EnableRayCache": false,
    "EnableDiffraction": false,
    "InitRays": 500,
    "NumReflectedRays": 3,
    "MaxReflectionOrder": 8,
    "MaxDiffuseOrder": 3,
    "MinEnergyThreshold": 0.005,
    "RTPeriod": 100,

    "OSCInPort_": 9000,
    "OSCOutPort": 7770,

    "IRPath": "",
    "RayObjPath": "",
    "ObjFile": "",

    "ObjectType": "Params"
}